{
  "profiles": {
    "LMS.Tasks.Loan.PaymentSuccess": {
      "commandName": "LMS.Tasks.Loan.PaymentSuccess",
      "environmentVariables": {
        "ASPNET_ENV": "qaelopment",
        "LOG_FORMAT": "Plain",

        "TASK-PAYMENT-SUCCESS_CONFIGURATION_HOST": "idea.qa.lendfoundry.com",
        "TASK-PAYMENT-SUCCESS_CONFIGURATION_PORT": "7001",
        "TASK-PAYMENT-SUCCESS_EVENTHUB_HOST": "idea.qa.lendfoundry.com",
        "TASK-PAYMENT-SUCCESS_EVENTHUB_PORT": "7002",
        "TASK-PAYMENT-SUCCESS_ACH_HOST": "idea.qa.lendfoundry.com",
        "TASK-PAYMENT-SUCCESS_ACH_PORT": "7068",
        "TASK-PAYMENT-SUCCESS_PAYMENT_HOST": "idea.qa.lendfoundry.com",
        "TASK-PAYMENT-SUCCESS_PAYMENT_PORT": "7095",
        "TASK-PAYMENT-SUCCESS_LOAN-ACCOUNTING_HOST": "idea.qa.lendfoundry.com",
        "TASK-PAYMENT-SUCCESS_LOAN-ACCOUNTING_PORT": "7093",
        "TASK-PAYMENT-SUCCESS_NATS_URL": "nats://idea.qa.lendfoundry.com:4222",
        //"TASK-PAYMENT-SUCCESS_DATA-ATTRIBUTES_HOST": "idea.qa.lendfoundry.com",
        //"TASK-PAYMENT-SUCCESS_DATA-ATTRIBUTES_PORT": "7012",
        "TASK-PAYMENT-SUCCESS_TENANT_HOST": "idea.qa.lendfoundry.com",
        "TASK-PAYMENT-SUCCESS_TENANT_PORT": "7003",
        "TASK-PAYMENT-SUCCESS_PRODUCT_HOST": "idea.qa.lendfoundry.com",
        "TASK-PAYMENT-SUCCESS_PRODUCT_PORT": "7053",
        "TASK-PAYMENT-SUCCESS_LOAN-MANAGEMENT_HOST": "idea.qa.lendfoundry.com",
        "TASK-PAYMENT-SUCCESS_LOAN-MANAGEMENT_PORT": "7092",
        "TASK-PAYMENT-SUCCESS_MONGO_CONNECTION": "mongodb://idea.qa.lendfoundry.com:27017",
        "TASK_SCHEDULE": "0 0/2 * 1/1 * ? *",
        "TASK_TENANT": "my-tenant"
      }
    }
  }
}
