{
  "profiles": {
    "LMS.Tasks.Loan.ModActivation": {
      "commandName": "LMS.Tasks.Loan.ModActivation",
      "environmentVariables": {
        "ASPNET_ENV": "Development",
        "LOG_FORMAT": "Plain",
        "TASK-LOAN-MOD-ACTIVATION_CONFIGURATION_HOST": "74.208.126.28",
        "TASK-LOAN-MOD-ACTIVATION_CONFIGURATION_PORT": "7001",
        "TASK-LOAN-MOD-ACTIVATION_EVENTHUB_HOST": "74.208.126.28",
        "TASK-LOAN-MOD-ACTIVATION_EVENTHUB_PORT": "7002",
        "TASK-LOAN-MOD-ACTIVATION_NATS_URL": "nats://74.208.126.28:4222",
        "TASK-LOAN-MOD-ACTIVATION_LOAN-MANAGEMENT_HOST": "74.208.126.28",
        "TASK-LOAN-MOD-ACTIVATION_LOAN-MANAGEMENT_PORT": "7092",
        "TASK-LOAN-MOD-ACTIVATION_LOAN-FILTERS_HOST": "74.208.126.28",
        "TASK-LOAN-MOD-ACTIVATION_LOAN-FILTERS_PORT": "7094",
        "TASK-LOAN-MOD-ACTIVATION_TENANT_HOST": "74.208.126.28",
        "TASK-LOAN-MOD-ACTIVATION_TENANT_PORT": "7003",
        "TASK-LOAN-MOD-ACTIVATION_MONGO_CONNECTION": "mongodb://multi:ezirSZcslv@74.208.126.28:27017/admin",
        "TASK_SCHEDULE": "0 0/2 * 1/1 * ? *",
        "TASK_TENANT": "capital-alliance"
      }
    }
  }
}
